<svg width="831" height="1129" viewBox="0 0 831 1129" fill="none" xmlns="http://www.w3.org/2000/svg">
<g opacity="0.12">
<g filter="url(#filter0_f_1590_675)">
<circle cx="-6.95435" cy="564.046" r="490.046" fill="url(#paint0_radial_1590_675)"/>
</g>
<g filter="url(#filter1_f_1590_675)">
<circle cx="266.046" cy="564.533" r="490.046" fill="url(#paint1_radial_1590_675)"/>
</g>
</g>
<defs>
<filter id="filter0_f_1590_675" x="-571" y="0" width="1128.09" height="1128.09" filterUnits="userSpaceOnUse" color-interpolation-filters="sRGB">
<feFlood flood-opacity="0" result="BackgroundImageFix"/>
<feBlend mode="normal" in="SourceGraphic" in2="BackgroundImageFix" result="shape"/>
<feGaussianBlur stdDeviation="37" result="effect1_foregroundBlur_1590_675"/>
</filter>
<filter id="filter1_f_1590_675" x="-298" y="0.487305" width="1128.09" height="1128.09" filterUnits="userSpaceOnUse" color-interpolation-filters="sRGB">
<feFlood flood-opacity="0" result="BackgroundImageFix"/>
<feBlend mode="normal" in="SourceGraphic" in2="BackgroundImageFix" result="shape"/>
<feGaussianBlur stdDeviation="37" result="effect1_foregroundBlur_1590_675"/>
</filter>
<radialGradient id="paint0_radial_1590_675" cx="0" cy="0" r="1" gradientUnits="userSpaceOnUse" gradientTransform="translate(-6.95435 564.046) rotate(90) scale(490.046)">
<stop stop-color="#FB4034"/>
<stop offset="1" stop-color="white" stop-opacity="0"/>
</radialGradient>
<radialGradient id="paint1_radial_1590_675" cx="0" cy="0" r="1" gradientUnits="userSpaceOnUse" gradientTransform="translate(266.046 564.533) rotate(90) scale(490.046)">
<stop stop-color="#FD6E30"/>
<stop offset="1" stop-color="white" stop-opacity="0"/>
</radialGradient>
</defs>
</svg>
