<svg width="929" height="1174" viewBox="0 0 929 1174" fill="none" xmlns="http://www.w3.org/2000/svg">
<g opacity="0.1">
<g filter="url(#filter0_f_2360_2766)">
<circle cx="564.046" cy="609.558" r="490.046" fill="url(#paint0_radial_2360_2766)"/>
</g>
<g filter="url(#filter1_f_2360_2766)">
<circle cx="855.954" cy="564.046" r="490.046" fill="url(#paint1_radial_2360_2766)"/>
</g>
</g>
<defs>
<filter id="filter0_f_2360_2766" x="0" y="45.5126" width="1128.09" height="1128.09" filterUnits="userSpaceOnUse" color-interpolation-filters="sRGB">
<feFlood flood-opacity="0" result="BackgroundImageFix"/>
<feBlend mode="normal" in="SourceGraphic" in2="BackgroundImageFix" result="shape"/>
<feGaussianBlur stdDeviation="37" result="effect1_foregroundBlur_2360_2766"/>
</filter>
<filter id="filter1_f_2360_2766" x="291.908" y="0" width="1128.09" height="1128.09" filterUnits="userSpaceOnUse" color-interpolation-filters="sRGB">
<feFlood flood-opacity="0" result="BackgroundImageFix"/>
<feBlend mode="normal" in="SourceGraphic" in2="BackgroundImageFix" result="shape"/>
<feGaussianBlur stdDeviation="37" result="effect1_foregroundBlur_2360_2766"/>
</filter>
<radialGradient id="paint0_radial_2360_2766" cx="0" cy="0" r="1" gradientUnits="userSpaceOnUse" gradientTransform="translate(564.046 609.558) rotate(90) scale(490.046)">
<stop stop-color="#FB4034"/>
<stop offset="1" stop-color="white" stop-opacity="0"/>
</radialGradient>
<radialGradient id="paint1_radial_2360_2766" cx="0" cy="0" r="1" gradientUnits="userSpaceOnUse" gradientTransform="translate(855.954 564.046) rotate(90) scale(490.046)">
<stop stop-color="#FD6E30"/>
<stop offset="1" stop-color="white" stop-opacity="0"/>
</radialGradient>
</defs>
</svg>
