<svg width="30" height="31" viewBox="0 0 30 31" fill="none" xmlns="http://www.w3.org/2000/svg">
<path d="M27.3567 9.02219V8.94219L28.4867 8.09219C29.1419 7.5984 29.5778 6.86779 29.7012 6.05669C29.8245 5.24559 29.6255 4.41843 29.1467 3.75219C28.3402 2.65036 27.4109 1.64389 26.3767 0.75219C26.0395 0.470201 25.6483 0.260011 25.227 0.134488C24.8057 0.00896537 24.3633 -0.0292473 23.9267 0.0221898C23.5029 0.0678213 23.0931 0.200653 22.7231 0.412332C22.3531 0.62401 22.0309 0.909957 21.7767 1.25219L21.0567 2.25219C20.9267 2.18219 20.7767 2.13219 20.6367 2.06219C23.6524 3.4824 26.0432 5.95851 27.3567 9.02219Z" fill="url(#paint0_linear_2275_2694)"/>
<path d="M9.06581 2.02217L8.64581 2.21217L7.92581 1.21217C7.66871 0.876442 7.34503 0.597445 6.97506 0.39267C6.60509 0.187896 6.19681 0.0617604 5.77581 0.0221712C5.34345 -0.0231685 4.9064 0.0209032 4.4918 0.151647C4.07721 0.282391 3.69393 0.497012 3.36581 0.782171C2.32384 1.6688 1.39066 2.67582 0.585805 3.78217C0.108655 4.44803 -0.0884405 5.27442 0.0368229 6.08395C0.162086 6.89349 0.599724 7.62166 1.25581 8.11217L2.38581 8.95217C2.3914 8.98527 2.3914 9.01907 2.38581 9.05217C3.67695 5.9702 6.05373 3.46889 9.06581 2.02217Z" fill="url(#paint1_linear_2275_2694)"/>
<path d="M25.2869 23.0222C25.5069 22.7622 25.7069 22.4922 25.9069 22.2122C26.1069 21.9322 26.2569 21.7022 26.4169 21.4422C26.5769 21.1822 26.7369 20.9322 26.8769 20.6622C27.0169 20.3922 27.0569 20.2822 27.1569 20.0822C27.2569 19.8822 27.3969 19.5322 27.5069 19.2522C27.6169 18.9722 27.6469 18.9022 27.7069 18.7222C27.8221 18.3607 27.9189 17.9935 27.9969 17.6222C27.9969 17.4722 28.0769 17.3322 28.1069 17.1822C28.1115 17.1223 28.1115 17.0621 28.1069 17.0022C28.1769 16.6522 28.2269 16.3022 28.2669 15.9522C28.2669 15.8122 28.2669 15.6722 28.2669 15.5522C28.2669 15.2322 28.3169 14.9122 28.3169 14.5522C28.3169 14.3722 28.3169 14.1922 28.3169 14.0122C28.3169 13.8322 28.3169 13.4622 28.3169 13.1822C28.3169 12.9022 28.3169 12.9022 28.3169 12.7522C28.3169 12.6022 28.2269 12.1622 28.1769 11.8622C28.1769 11.7422 28.1769 11.6122 28.1069 11.4822C28.0469 11.1922 27.9669 10.9122 27.8869 10.6222C27.8869 10.5222 27.8369 10.4122 27.8069 10.3122C27.7469 10.1022 27.6569 9.87219 27.5769 9.65219C27.4969 9.43219 27.4669 9.35219 27.4069 9.21219L27.3569 9.02219C26.0514 5.94351 23.6597 3.45217 20.6369 2.02219C20.3669 1.90219 20.0869 1.77219 19.8069 1.66219L19.3669 1.50219C18.9469 1.36219 18.5269 1.23219 18.0969 1.12219H18.0169C15.9342 0.642091 13.7696 0.642091 11.6869 1.12219H11.6169C11.1869 1.23219 10.7669 1.36219 10.3469 1.50219L9.90687 1.66219C9.61687 1.77219 9.34687 1.90219 9.06687 2.02219C6.04513 3.45371 3.65391 5.94455 2.34687 9.02219L2.29688 9.14219C2.15688 9.49219 2.02688 9.84219 1.90688 10.2022C1.91117 10.2421 1.91117 10.2823 1.90688 10.3222C1.88823 10.4101 1.86486 10.4968 1.83688 10.5822C1.75688 10.8622 1.68688 11.1522 1.61688 11.4522L1.52688 11.9122C1.52688 12.1722 1.43688 12.4422 1.40688 12.7122C1.37688 12.9822 1.40688 12.9822 1.35688 13.1222C1.35688 13.5322 1.29688 13.9422 1.29688 14.3522C1.29688 14.7622 1.29688 15.1522 1.35688 15.5522C1.3623 15.6187 1.3623 15.6856 1.35688 15.7522V15.9622C1.39321 16.3383 1.44996 16.7122 1.52688 17.0822C1.52215 17.0985 1.52215 17.1159 1.52688 17.1322C1.52688 17.2922 1.60688 17.4322 1.63688 17.5822C1.74688 18.0022 1.86688 18.4122 2.00688 18.8122C2.00688 18.9422 2.09688 19.0822 2.14688 19.2122C2.28688 19.5622 2.43687 19.9122 2.59687 20.2122C2.65687 20.3422 2.71687 20.4722 2.78688 20.6022C2.98688 20.9822 3.20688 21.3522 3.43688 21.7122L3.54688 21.9022C3.82017 22.3004 4.1139 22.6843 4.42687 23.0522C4.96149 23.6981 5.55395 24.2939 6.19687 24.8322C6.52687 25.0922 6.86687 25.3522 7.19687 25.5822C7.54031 25.8199 7.89761 26.037 8.26688 26.2322L8.39687 26.3022C8.70555 26.4715 9.02263 26.625 9.34688 26.7622L9.57687 26.8622C9.92688 27.0022 10.2669 27.1322 10.5769 27.2522L10.9969 27.3722L11.6369 27.5322L12.2369 27.6622C12.5369 27.7222 12.8369 27.7622 13.1469 27.8022H13.4069C13.7989 27.8424 14.1928 27.8624 14.5869 27.8622H14.9969C15.7957 27.8619 16.5927 27.7849 17.3769 27.6322C17.9658 27.5233 18.547 27.3763 19.1169 27.1922H19.1969C19.6815 27.0317 20.1558 26.8413 20.6169 26.6222L20.9769 26.4522C21.3576 26.2617 21.7281 26.0515 22.0869 25.8222L22.4169 25.6322C22.8334 25.3548 23.234 25.0544 23.6169 24.7322C24.2216 24.2112 24.7804 23.6391 25.2869 23.0222ZM16.8869 25.6322L16.3669 25.7122L15.5069 25.8022H15.2769C14.9569 25.8022 14.6369 25.8022 14.2769 25.8022L13.3269 25.7122L12.8069 25.6322C10.6254 25.2101 8.60887 24.1766 6.99237 22.6522C5.37587 21.1277 4.22602 19.1752 3.67688 17.0222C3.67245 16.9756 3.67245 16.9288 3.67688 16.8822C3.67688 16.7222 3.60687 16.5522 3.56687 16.3422C3.52688 16.1322 3.56687 16.0422 3.49688 15.8822C3.49688 15.8822 3.49688 15.8322 3.49688 15.8122C3.49688 15.6622 3.49688 15.5222 3.44688 15.3722V15.3222C3.42696 15.0058 3.42696 14.6885 3.44688 14.3722C3.4494 13.2119 3.6281 12.0588 3.97688 10.9522C4.09664 10.5539 4.24023 10.1632 4.40687 9.78219C4.40311 9.75231 4.40311 9.72207 4.40687 9.69219C4.48794 9.49317 4.58146 9.29945 4.68688 9.11219C5.64294 7.21412 7.10291 5.61577 8.90687 4.49219C10.7105 3.43183 12.7647 2.87272 14.8569 2.87272C16.9491 2.87272 19.0033 3.43183 20.8069 4.49219C22.6275 5.59633 24.1084 7.18107 25.0869 9.07219C25.1569 9.20219 25.2169 9.33219 25.2769 9.46219L25.3769 9.67219C25.5551 10.0793 25.7087 10.4967 25.8369 10.9222C26.2289 12.1559 26.4015 13.4488 26.3469 14.7422C26.3469 14.9222 26.3469 15.1222 26.3469 15.3322C26.3469 15.5422 26.3469 15.6222 26.3469 15.7722V15.8722C26.3469 16.0222 26.3469 16.1822 26.2769 16.3622C26.2769 16.5422 26.2169 16.7122 26.1869 16.8722C25.6567 19.0816 24.4951 21.0891 22.8438 22.6499C21.1924 24.2107 19.1227 25.2573 16.8869 25.6622V25.6322Z" fill="url(#paint2_linear_2275_2694)"/>
<path d="M22.3301 23.5701L24.614 25.854C24.9891 26.2291 25.1998 26.7378 25.1998 27.2682C25.1998 27.7987 24.9891 28.3074 24.614 28.6824L24.4585 28.838C24.0834 29.2131 23.5747 29.4238 23.0443 29.4238C22.5138 29.4238 22.0051 29.2131 21.63 28.838L19.3461 26.5541L22.3301 23.5701Z" fill="url(#paint3_linear_2275_2694)"/>
<path d="M10.0762 26.5275L7.79222 28.8115C7.6065 28.9972 7.38602 29.1445 7.14337 29.245C6.90072 29.3455 6.64065 29.3972 6.378 29.3972C6.11536 29.3972 5.85529 29.3455 5.61264 29.245C5.36999 29.1445 5.14951 28.9972 4.96379 28.8115L4.80823 28.6559C4.43315 28.2808 4.22244 27.7721 4.22244 27.2417C4.22244 26.7112 4.43315 26.2025 4.80823 25.8275L7.09218 23.5435L10.0762 26.5275Z" fill="url(#paint4_linear_2275_2694)"/>
<path d="M20.0855 15.3922H14.8555C14.5903 15.3922 14.3359 15.2868 14.1484 15.0993C13.9608 14.9118 13.8555 14.6574 13.8555 14.3922V6.0222C13.8555 5.75168 13.9629 5.49224 14.1542 5.30095C14.3455 5.10966 14.6049 5.0022 14.8755 5.0022C15.146 5.0022 15.4054 5.10966 15.5967 5.30095C15.788 5.49224 15.8955 5.75168 15.8955 6.0222V13.3422H20.0855C20.3626 13.3422 20.6284 13.4523 20.8244 13.6483C21.0204 13.8442 21.1305 14.11 21.1305 14.3872C21.1305 14.6643 21.0204 14.9301 20.8244 15.1261C20.6284 15.3221 20.3626 15.4322 20.0855 15.4322V15.3922Z" fill="url(#paint5_linear_2275_2694)"/>
<defs>
<linearGradient id="paint0_linear_2275_2694" x1="22.4062" y1="2.00493" x2="27.8353" y2="7.56519" gradientUnits="userSpaceOnUse">
<stop stop-color="#FF843D"/>
<stop offset="1" stop-color="#FF5942"/>
</linearGradient>
<linearGradient id="paint1_linear_2275_2694" x1="1.7628" y1="2.01539" x2="7.20774" y2="7.55542" gradientUnits="userSpaceOnUse">
<stop stop-color="#FF843D"/>
<stop offset="1" stop-color="#FF5942"/>
</linearGradient>
<linearGradient id="paint2_linear_2275_2694" x1="6.55076" y1="6.78435" x2="22.8617" y2="23.2972" gradientUnits="userSpaceOnUse">
<stop stop-color="#FF843D"/>
<stop offset="1" stop-color="#FF5942"/>
</linearGradient>
<linearGradient id="paint3_linear_2275_2694" x1="22.3861" y1="24.9523" x2="21.9339" y2="28.9038" gradientUnits="userSpaceOnUse">
<stop stop-color="#FF843D"/>
<stop offset="1" stop-color="#FF5942"/>
</linearGradient>
<linearGradient id="paint4_linear_2275_2694" x1="8.69397" y1="26.5835" x2="4.74243" y2="26.1313" gradientUnits="userSpaceOnUse">
<stop stop-color="#FF843D"/>
<stop offset="1" stop-color="#FF5942"/>
</linearGradient>
<linearGradient id="paint5_linear_2275_2694" x1="15.2701" y1="7.31998" x2="21.1922" y2="11.5143" gradientUnits="userSpaceOnUse">
<stop stop-color="#FF843D"/>
<stop offset="1" stop-color="#FF5942"/>
</linearGradient>
</defs>
</svg>
