<svg width="66" height="68" viewBox="0 0 66 68" fill="none" xmlns="http://www.w3.org/2000/svg">
<path d="M57.3736 26.2964C59.3197 24.5899 61.8168 23.6437 64.4052 23.632C64.8047 23.632 65.1877 23.4734 65.4701 23.1909C65.7525 22.9085 65.9112 22.5255 65.9112 22.1261C65.9112 21.7267 65.7525 21.3436 65.4701 21.0612C65.1877 20.7788 64.8047 20.6201 64.4052 20.6201C61.6601 20.6203 59.0256 19.5377 57.0737 17.6075C55.1217 15.6772 54.0099 13.055 53.9794 10.3101C53.9461 9.92897 53.7712 9.57419 53.4892 9.31573C53.2072 9.05727 52.8385 8.91389 52.456 8.91389C52.0735 8.91389 51.7048 9.05727 51.4228 9.31573C51.1408 9.57419 50.9659 9.92897 50.9327 10.3101C50.9297 12.0463 50.4872 13.7535 49.6466 15.2726C48.806 16.7918 47.5946 18.0735 46.1252 18.9983C44.7079 17.0156 42.9602 15.2915 40.9586 13.9012V6.83475C40.9497 6.43813 40.7882 6.0602 40.5077 5.77967C40.2272 5.49914 39.8492 5.33764 39.4526 5.32879H37.9119V1.50596C37.9029 1.10737 37.7398 0.727767 37.4568 0.446931C37.1738 0.166095 36.793 0.00589492 36.3943 0L28.8877 0C28.4891 0.00589492 28.1082 0.166095 27.8252 0.446931C27.5422 0.727767 27.3791 1.10737 27.3702 1.50596V5.32879H25.841C25.4424 5.33469 25.0615 5.49489 24.7785 5.77572C24.4955 6.05656 24.3324 6.43616 24.3235 6.83475V12.5111C18.5357 14.445 13.5002 18.1453 9.92588 23.0912C6.35153 28.0372 4.41833 33.9795 4.39844 40.0818C4.45948 47.4994 7.44584 54.593 12.7084 59.8209C17.9709 65.0487 25.0842 67.988 32.502 68C53.8519 67.8842 68.0311 45.6423 57.3736 26.2964ZM7.68839 41.4719H13.1909C13.2819 45.3068 13.9939 49.1016 15.2993 52.7087C14.1409 53.0562 12.9824 53.5196 11.9051 53.8671C9.3493 50.2205 7.88652 45.9206 7.68839 41.4719ZM11.7892 26.0647C12.9477 26.5281 14.1061 26.9915 15.2645 27.339C14.0694 30.9753 13.3605 34.7536 13.1562 38.5758H7.68839C7.90097 34.1117 9.31804 29.7885 11.7892 26.0647ZM55.3811 28.7291C56.9256 31.7942 57.8133 35.148 57.9875 38.5758H52.4502C52.4502 37.5332 52.3344 36.4906 52.2185 35.3322C52.4366 35.3744 52.6613 35.3666 52.8759 35.3095C53.0905 35.2525 53.2894 35.1476 53.4577 35.0027C53.626 34.8578 53.7593 34.6767 53.8477 34.4729C53.936 34.2692 53.9771 34.0481 53.9678 33.8262C53.9083 32.0229 54.4014 30.2444 55.3811 28.7291ZM46.4032 25.3697C48.254 29.5364 49.2882 34.0194 49.4499 38.5758H43.426C43.3797 33.5388 42.7499 28.5241 41.5494 23.632C43.2785 23.8342 44.9386 24.4285 46.4032 25.3697ZM26.4318 53.5196C28.059 53.2892 29.7002 53.173 31.3436 53.1721V64.4089C29.4785 62.9029 27.6018 59.1959 26.4318 53.5196ZM16.1218 38.5758C16.2631 35.0207 16.9347 31.5066 18.1143 28.1499C19.6318 28.4974 21.2768 28.845 22.9218 29.1925C22.4468 32.3387 22.1644 35.511 22.0761 38.6917H16.1218V38.5758ZM31.2393 14.8279V26.9915C29.5921 26.991 27.9469 26.8749 26.316 26.644C27.6018 20.5043 29.4785 16.4497 31.2393 14.8279ZM26.7794 15.9864C25.1841 19.212 24.0419 22.6425 23.3851 26.1806C21.9834 25.9489 20.5702 25.6014 19.1685 25.3697C20.789 21.5983 23.4235 18.3502 26.7794 15.9864ZM25.841 29.54C27.6312 29.7711 29.4343 29.8872 31.2393 29.8876V38.5758H25.0301C25.1016 35.5493 25.3725 32.5309 25.841 29.54ZM31.2393 41.4719V50.1601C29.3627 50.1601 27.6018 50.3918 25.841 50.5077C25.3521 47.5211 25.1196 44.4981 25.146 41.4719H31.2393ZM34.286 53.1721C35.9332 53.1729 37.5783 53.289 39.2093 53.5196C38.0509 59.1959 36.0468 63.0187 34.286 64.4089V53.1721ZM34.286 50.1601V41.4719H40.4952C40.466 44.4964 40.2299 47.5154 39.7886 50.5077L34.286 50.1601ZM34.286 38.5758V29.8876C36.1257 29.8872 37.9635 29.7711 39.7886 29.54C40.2204 32.5334 40.4565 35.5517 40.4952 38.5758H34.286ZM39.2093 26.644C37.5783 26.8745 35.9332 26.9907 34.286 26.9915V14.8279C36.0468 16.4497 38.0393 20.5043 39.2093 26.644ZM16.1218 41.4719H22.0761C22.1618 44.6518 22.4365 47.8238 22.8986 50.971C21.2536 51.2027 19.7245 51.5503 18.0911 51.8978C16.9221 48.5392 16.2584 45.0255 16.1218 41.4719ZM23.3851 53.8671C24.0183 57.0843 25.082 60.2015 26.5477 63.1346C23.3928 61.0397 20.879 58.1129 19.2843 54.678C20.686 54.4463 22.0761 54.0988 23.3851 53.8671ZM42.1402 53.8671C43.5419 54.0988 44.8277 54.3305 46.241 54.678C44.6779 58.1366 42.1524 61.0723 38.9661 63.1346C40.3482 60.1661 41.4121 57.0596 42.1402 53.8671ZM42.6035 50.971C43.065 47.8237 43.3396 44.6517 43.426 41.4719H49.4035C49.306 45.0319 48.6332 48.5527 47.411 51.8978C45.8819 51.5503 44.2485 51.2027 42.6035 50.971ZM52.4502 41.4719H57.9875C57.7706 45.917 56.3095 50.2118 53.7708 53.8671C52.6643 53.4118 51.5307 53.0249 50.3766 52.7087C51.581 49.0762 52.2787 45.295 52.4502 41.4719ZM52.4502 16.4497C53.7507 18.9171 55.8041 20.9055 58.3119 22.1261C55.8205 23.4241 53.7779 25.4425 52.4502 27.9182C51.151 25.4452 49.1311 23.4253 46.6581 22.1261C49.1268 20.875 51.1495 18.8927 52.4502 16.4497ZM43.3102 20.2726C42.4698 20.5095 41.6001 20.6265 40.7269 20.6201C40.227 19.0276 39.5994 17.4779 38.8502 15.9864C40.5583 17.1652 42.0644 18.6127 43.3102 20.2726ZM30.5674 2.89608H35.0274V5.32879H30.5327V2.89608H30.5674ZM27.486 8.22487H37.9119V11.7002C34.4714 11.005 30.9265 11.005 27.486 11.7002V8.22487ZM20.686 17.4923C18.8542 19.5871 17.3894 21.9761 16.3535 24.5588C15.4151 24.2112 14.4768 23.9796 13.5385 23.632C15.5558 21.1951 17.9727 19.119 20.686 17.4923ZM13.7354 56.4157C14.5579 56.0681 15.4962 55.8365 16.3187 55.4889C17.3518 57.7481 18.6929 59.8533 20.3037 61.7445C17.8304 60.3648 15.6189 58.5611 13.7702 56.4157H13.7354ZM45.2448 61.7445C46.8425 59.8437 48.1824 57.7404 49.2298 55.4889C50.1101 55.7295 50.9701 56.0393 51.8015 56.4157C49.9467 58.5641 47.727 60.368 45.2448 61.7445Z" fill="url(#paint0_linear_2249_8224)"/>
<path d="M2.76542 10.3101L6.04379 10.8893L4.39881 12.5111C4.20886 12.6911 4.07214 12.9199 4.00364 13.1725C3.93515 13.425 3.93754 13.6916 4.01053 13.9429C4.08353 14.1942 4.22432 14.4205 4.41746 14.5971C4.6106 14.7736 4.84863 14.8936 5.10546 14.9438C10.1446 16.2181 9.91295 16.2181 10.2605 16.2181C10.5929 16.2251 10.9168 16.1118 11.1722 15.8989C11.4277 15.686 11.5976 15.3879 11.6506 15.0597C11.7392 14.6748 11.68 14.2707 11.4847 13.9275C11.2895 13.5842 10.9725 13.3268 10.5964 13.2062L8.38382 12.7428L10.1446 11.0051C10.3354 10.8152 10.4722 10.578 10.541 10.3178C10.6098 10.0575 10.6081 9.7837 10.5362 9.52432C10.4643 9.26494 10.3247 9.02936 10.1317 8.84173C9.93872 8.6541 9.6993 8.52117 9.43799 8.45658L3.46048 7.29815C3.26955 7.25926 3.07283 7.25837 2.88156 7.29555C2.6903 7.33273 2.50823 7.40725 2.34578 7.51483C2.18332 7.62242 2.04366 7.76097 1.93479 7.92256C1.82591 8.08415 1.74995 8.26562 1.71125 8.45658C1.64818 8.6474 1.62585 8.84932 1.6457 9.0493C1.66555 9.24928 1.72714 9.44288 1.8265 9.61756C1.92585 9.79225 2.06075 9.94415 2.22249 10.0634C2.38422 10.1827 2.56918 10.2667 2.76542 10.3101Z" fill="url(#paint1_linear_2249_8224)"/>
<path d="M65.4595 50.6235C65.1795 50.3448 64.8004 50.1884 64.4053 50.1884C64.0102 50.1884 63.6312 50.3448 63.3511 50.6235L60.3045 53.6355C60.1643 53.7705 60.0528 53.9325 59.9767 54.1116C59.9006 54.2908 59.8613 54.4834 59.8613 54.6781C59.8613 54.8727 59.9006 55.0654 59.9767 55.2445C60.0528 55.4236 60.1643 55.5856 60.3045 55.7206L62.2854 57.69L60.3045 59.6593C60.1643 59.7944 60.0528 59.9563 59.9767 60.1355C59.9006 60.3146 59.8613 60.5073 59.8613 60.7019C59.8613 60.8966 59.9006 61.0892 59.9767 61.2683C60.0528 61.4475 60.1643 61.6094 60.3045 61.7445L63.2237 64.6406C63.3588 64.7853 63.522 64.901 63.7032 64.9806C63.8844 65.0603 64.0799 65.1022 64.2779 65.104C64.5713 65.0999 64.8571 65.0102 65.1003 64.8459C65.3434 64.6816 65.5332 64.4499 65.6465 64.1791C65.7597 63.9084 65.7913 63.6105 65.7375 63.3221C65.6837 63.0336 65.5468 62.7671 65.3436 62.5554L63.467 60.5861L65.3436 58.6167C65.4809 58.48 65.5899 58.3176 65.6642 58.1386C65.7386 57.9597 65.7768 57.7679 65.7768 57.5741C65.7768 57.3804 65.7386 57.1886 65.6642 57.0096C65.5899 56.8307 65.4809 56.6682 65.3436 56.5315L63.467 54.5622L65.3436 52.5929C65.5002 52.4849 65.6301 52.3426 65.7234 52.1769C65.8167 52.0112 65.871 51.8263 65.8822 51.6365C65.8934 51.4466 65.8611 51.2567 65.7879 51.0812C65.7146 50.9057 65.6023 50.7491 65.4595 50.6235Z" fill="url(#paint2_linear_2249_8224)"/>
<path d="M3.11246 20.6201C3.10812 20.921 3.19264 21.2164 3.35544 21.4695C3.51824 21.7225 3.75208 21.9219 4.02768 22.0427C4.30328 22.1635 4.60838 22.2003 4.90478 22.1484C5.20119 22.0966 5.47571 21.9585 5.69399 21.7514C5.91226 21.5443 6.06457 21.2774 6.13185 20.9841C6.19913 20.6908 6.17839 20.3842 6.07222 20.1026C5.96606 19.8211 5.77918 19.5771 5.535 19.4013C5.29083 19.2255 5.0002 19.1256 4.69952 19.1141C4.29555 19.1244 3.90973 19.284 3.6166 19.5621C3.32348 19.8403 3.14386 20.2172 3.11246 20.6201Z" fill="url(#paint3_linear_2249_8224)"/>
<path d="M16.5844 7.2981C16.985 7.29519 17.3688 7.13631 17.6543 6.85516C17.9398 6.57401 18.1045 6.19271 18.1135 5.79214C18.0395 5.45083 17.8508 5.14515 17.579 4.92593C17.3071 4.70671 16.9684 4.58716 16.6191 4.58716C16.2699 4.58716 15.9312 4.70671 15.6593 4.92593C15.3874 5.14515 15.1988 5.45083 15.1248 5.79214C15.1185 5.98768 15.1517 6.18248 15.2223 6.36495C15.2928 6.54742 15.3994 6.71385 15.5355 6.85433C15.6717 6.99482 15.8347 7.1065 16.0149 7.18273C16.1951 7.25896 16.3887 7.2982 16.5844 7.2981Z" fill="url(#paint4_linear_2249_8224)"/>
<path d="M46.4725 4.402C46.8711 4.39611 47.252 4.23591 47.535 3.95507C47.818 3.67424 47.9811 3.29463 47.99 2.89604C47.9568 2.51496 47.7819 2.16018 47.4999 1.90172C47.2179 1.64326 46.8492 1.49988 46.4667 1.49988C46.0842 1.49988 45.7155 1.64326 45.4335 1.90172C45.1515 2.16018 44.9766 2.51496 44.9434 2.89604C44.9524 3.29661 45.1171 3.67791 45.4026 3.95906C45.6881 4.24021 46.0718 4.39909 46.4725 4.402Z" fill="url(#paint5_linear_2249_8224)"/>
<path d="M64.4055 26.5281C64.1082 26.5304 63.8181 26.6206 63.572 26.7875C63.3259 26.9544 63.1347 27.1903 63.0225 27.4657C62.9103 27.7411 62.8821 28.0435 62.9415 28.3349C63.0009 28.6262 63.1452 28.8935 63.3563 29.1029C63.5674 29.3124 63.8357 29.4547 64.1275 29.5119C64.4193 29.569 64.7215 29.5385 64.996 29.4242C65.2705 29.3099 65.5051 29.1169 65.67 28.8695C65.835 28.6221 65.923 28.3314 65.9231 28.034C65.9141 27.6354 65.751 27.2558 65.468 26.975C65.185 26.6942 64.8042 26.534 64.4055 26.5281Z" fill="url(#paint6_linear_2249_8224)"/>
<path d="M55.3811 61.9762C55.0838 61.9785 54.7937 62.0687 54.5476 62.2356C54.3015 62.4025 54.1103 62.6385 53.9981 62.9138C53.8858 63.1892 53.8577 63.4916 53.9171 63.783C53.9765 64.0744 54.1208 64.3416 54.3319 64.5511C54.543 64.7605 54.8113 64.9028 55.1031 64.96C55.3949 65.0171 55.6971 64.9867 55.9716 64.8723C56.2461 64.758 56.4807 64.565 56.6456 64.3176C56.8106 64.0702 56.8986 63.7795 56.8986 63.4822C56.8897 63.0836 56.7266 62.704 56.4436 62.4231C56.1606 62.1423 55.7797 61.9821 55.3811 61.9762Z" fill="url(#paint7_linear_2249_8224)"/>
<path d="M1.58311 51.6661C1.98252 51.6661 2.36556 51.5074 2.64799 51.225C2.93041 50.9426 3.08907 50.5595 3.08907 50.1601C3.08907 49.7607 2.93041 49.3777 2.64799 49.0953C2.36556 48.8128 1.98252 48.6542 1.58311 48.6542C1.1837 48.6542 0.800657 48.8128 0.518235 49.0953C0.235812 49.3777 0.0771484 49.7607 0.0771484 50.1601C0.0771484 50.5595 0.235812 50.9426 0.518235 51.225C0.800657 51.5074 1.1837 51.6661 1.58311 51.6661Z" fill="url(#paint8_linear_2249_8224)"/>
<path d="M4.6999 56.0681C3.5324 56.0681 2.41272 56.5319 1.58718 57.3574C0.761637 58.183 0.297852 59.3027 0.297852 60.4702C0.297852 61.6377 0.761637 62.7573 1.58718 63.5829C2.41272 64.4084 3.5324 64.8722 4.6999 64.8722C5.86739 64.8722 6.98707 64.4084 7.81261 63.5829C8.63815 62.7573 9.10194 61.6377 9.10194 60.4702C9.10194 59.3027 8.63815 58.183 7.81261 57.3574C6.98707 56.5319 5.86739 56.0681 4.6999 56.0681ZM4.6999 61.9761C4.40255 61.9738 4.11253 61.8836 3.86641 61.7167C3.62028 61.5498 3.42906 61.3139 3.31685 61.0385C3.20465 60.7631 3.17647 60.4607 3.23588 60.1693C3.29529 59.878 3.43962 59.6107 3.65069 59.4013C3.86176 59.1918 4.13011 59.0495 4.42192 58.9923C4.71372 58.9352 5.01593 58.9657 5.29043 59.08C5.56494 59.1943 5.79945 59.3873 5.96442 59.6347C6.1294 59.8821 6.21743 60.1728 6.21744 60.4702C6.20849 60.8688 6.04538 61.2484 5.76238 61.5292C5.47939 61.81 5.09854 61.9702 4.6999 61.9761Z" fill="url(#paint9_linear_2249_8224)"/>
<path d="M60.6518 11.816C61.3829 11.8069 62.095 11.5817 62.6985 11.1689C63.302 10.756 63.7699 10.1739 64.0433 9.49583C64.3168 8.81771 64.3837 8.07386 64.2354 7.35786C64.0872 6.64185 63.7306 5.98567 63.2103 5.47187C62.6901 4.95806 62.0295 4.60958 61.3117 4.47026C60.594 4.33094 59.851 4.40701 59.1763 4.68889C58.5017 4.97077 57.9254 5.44588 57.5201 6.05445C57.1148 6.66301 56.8985 7.37785 56.8984 8.10904C56.9106 9.09643 57.3114 10.0392 58.014 10.7331C58.7166 11.427 59.6643 11.8161 60.6518 11.816ZM60.6518 7.29814C60.8337 7.30884 61.0056 7.38518 61.1356 7.513C61.2655 7.64082 61.3447 7.81144 61.3584 7.9932C61.3584 8.18061 61.284 8.36035 61.1514 8.49287C61.0189 8.62539 60.8392 8.69984 60.6518 8.69984C60.4643 8.69984 60.2846 8.62539 60.1521 8.49287C60.0196 8.36035 59.9451 8.18061 59.9451 7.9932C59.8293 7.64567 60.1768 7.29814 60.6518 7.29814Z" fill="url(#paint10_linear_2249_8224)"/>
<defs>
<linearGradient id="paint0_linear_2249_8224" x1="16.3593" y1="15.1111" x2="57.1425" y2="52.5712" gradientUnits="userSpaceOnUse">
<stop stop-color="#FF843D"/>
<stop offset="1" stop-color="#FF5942"/>
</linearGradient>
<linearGradient id="paint1_linear_2249_8224" x1="3.59324" y1="9.25722" x2="8.93433" y2="15.3482" gradientUnits="userSpaceOnUse">
<stop stop-color="#FF843D"/>
<stop offset="1" stop-color="#FF5942"/>
</linearGradient>
<linearGradient id="paint2_linear_2249_8224" x1="61.0325" y1="53.5029" x2="67.3352" y2="56.0872" gradientUnits="userSpaceOnUse">
<stop stop-color="#FF843D"/>
<stop offset="1" stop-color="#FF5942"/>
</linearGradient>
<linearGradient id="paint3_linear_2249_8224" x1="3.70697" y1="19.7935" x2="5.54691" y2="21.6624" gradientUnits="userSpaceOnUse">
<stop stop-color="#FF843D"/>
<stop offset="1" stop-color="#FF5942"/>
</linearGradient>
<linearGradient id="paint4_linear_2249_8224" x1="15.7053" y1="5.18959" x2="17.3267" y2="7.00509" gradientUnits="userSpaceOnUse">
<stop stop-color="#FF843D"/>
<stop offset="1" stop-color="#FF5942"/>
</linearGradient>
<linearGradient id="paint5_linear_2249_8224" x1="45.5358" y1="2.14479" x2="47.2791" y2="4.00308" gradientUnits="userSpaceOnUse">
<stop stop-color="#FF843D"/>
<stop offset="1" stop-color="#FF5942"/>
</linearGradient>
<linearGradient id="paint6_linear_2249_8224" x1="63.4968" y1="27.1974" x2="65.3095" y2="29.038" gradientUnits="userSpaceOnUse">
<stop stop-color="#FF843D"/>
<stop offset="1" stop-color="#FF5942"/>
</linearGradient>
<linearGradient id="paint7_linear_2249_8224" x1="54.4724" y1="62.6455" x2="56.2851" y2="64.4861" gradientUnits="userSpaceOnUse">
<stop stop-color="#FF843D"/>
<stop offset="1" stop-color="#FF5942"/>
</linearGradient>
<linearGradient id="paint8_linear_2249_8224" x1="0.6628" y1="49.3235" x2="2.47553" y2="51.1641" gradientUnits="userSpaceOnUse">
<stop stop-color="#FF843D"/>
<stop offset="1" stop-color="#FF5942"/>
</linearGradient>
<linearGradient id="paint9_linear_2249_8224" x1="2.00976" y1="58.0246" x2="7.30851" y2="63.4049" gradientUnits="userSpaceOnUse">
<stop stop-color="#FF843D"/>
<stop offset="1" stop-color="#FF5942"/>
</linearGradient>
<linearGradient id="paint10_linear_2249_8224" x1="58.34" y1="6.04983" x2="62.802" y2="10.5806" gradientUnits="userSpaceOnUse">
<stop stop-color="#FF843D"/>
<stop offset="1" stop-color="#FF5942"/>
</linearGradient>
</defs>
</svg>
