<svg width="24" height="24" viewBox="0 0 24 24" fill="none" xmlns="http://www.w3.org/2000/svg">
<path d="M14.4745 12.875H12.2847V19H9.36496V12.875H7V10.332H9.36496V8.41797C9.36496 7.6888 9.51095 7.06901 9.80292 6.55859C10.0949 6.04818 10.5036 5.66536 11.0292 5.41016C11.5742 5.13672 12.1971 5 12.8978 5C13.2092 5 13.5401 5.01823 13.8905 5.05469C14.2409 5.07292 14.5134 5.10026 14.708 5.13672L15 5.16406V7.32422H13.8321C13.2871 7.32422 12.8881 7.46094 12.635 7.73438C12.4015 7.98958 12.2847 8.30859 12.2847 8.69141V10.332H14.8832L14.4745 12.875Z" fill="#111111"/>
</svg>
