<svg width="24" height="24" viewBox="0 0 24 24" fill="none" xmlns="http://www.w3.org/2000/svg">
<path d="M8.34821 18H5.23438V8.65625H8.34821V18ZM6.80804 7.375C6.31696 7.375 5.89286 7.20833 5.53571 6.875C5.17857 6.54167 5 6.14583 5 5.6875C5 5.22917 5.17857 4.83333 5.53571 4.5C5.89286 4.16667 6.31696 4 6.80804 4C7.29911 4 7.72321 4.16667 8.08036 4.5C8.4375 4.83333 8.61607 5.22917 8.61607 5.6875C8.61607 5.97917 8.52679 6.26042 8.34821 6.53125C8.19196 6.78125 7.96875 6.98958 7.67857 7.15625C7.41071 7.30208 7.12054 7.375 6.80804 7.375ZM20 18H16.8862V13.4375C16.8862 13.0833 16.875 12.8021 16.8527 12.5938C16.8304 12.3646 16.7746 12.1146 16.6853 11.8438C16.596 11.5521 16.4286 11.3333 16.183 11.1875C15.9598 11.0417 15.6585 10.9688 15.279 10.9688C14.5424 10.9688 14.0402 11.1875 13.7723 11.625C13.5268 12.0625 13.404 12.6458 13.404 13.375V18H10.2902V8.65625H13.3036V9.9375H13.3371C13.5603 9.52083 13.9286 9.16667 14.442 8.875C14.9554 8.5625 15.5692 8.40625 16.2835 8.40625C17.0424 8.40625 17.6674 8.52083 18.1585 8.75C18.6719 8.95833 19.0513 9.28125 19.2969 9.71875C19.5647 10.1354 19.7433 10.5938 19.8326 11.0938C19.9442 11.5938 20 12.1875 20 12.875V18Z" fill="#111111"/>
</svg>
