<svg width="60" height="60" viewBox="0 0 60 60" fill="none" xmlns="http://www.w3.org/2000/svg">
<path d="M40.1262 25.3858C40.9162 24.8957 41.5622 24.205 41.9985 23.3841C42.4348 22.5631 42.6457 21.6412 42.6098 20.7122V14.638H43.443C43.6224 14.637 43.7944 14.5667 43.9231 14.4417C44.0518 14.3167 44.1272 14.1468 44.1333 13.9675V10.6903C44.1323 10.5076 44.0592 10.3326 43.93 10.2033C43.8007 10.0741 43.6257 10.001 43.443 10H16.6903C16.5072 10 16.3317 10.0727 16.2022 10.2022C16.0727 10.3317 16 10.5072 16 10.6903V13.9675C16.001 14.1502 16.0741 14.3252 16.2033 14.4545C16.3326 14.5837 16.5076 14.6568 16.6903 14.6578H17.5195V20.8153C17.5195 23.7314 18.4083 24.4138 19.9794 25.3739L26.8074 29.5318V31.3053C25.0855 32.3408 20.5943 35.0466 20.0071 35.4592C19.2131 35.9502 18.5641 36.6438 18.1269 37.4687C17.6897 38.2936 17.4801 39.22 17.5195 40.1527V45.366H16.6903C16.5072 45.366 16.3317 45.4387 16.2022 45.5682C16.0727 45.6977 16 45.8732 16 46.0563V49.3097C16 49.4927 16.0727 49.6683 16.2022 49.7978C16.3317 49.9273 16.5072 50 16.6903 50H43.443C43.6257 49.999 43.8007 49.9259 43.93 49.7967C44.0592 49.6674 44.1323 49.4924 44.1333 49.3097V46.0563C44.1323 45.8736 44.0592 45.6986 43.93 45.5693C43.8007 45.4401 43.6257 45.367 43.443 45.366H42.6098V40.0298C42.6098 37.1137 41.7211 36.4273 40.1539 35.4711L33.3259 31.3132V29.5398C35.0438 28.5043 39.535 25.7985 40.1262 25.3858ZM31.4374 33.0708L38.8605 37.5977C39.2465 37.7814 39.5918 38.0404 39.8762 38.3595C40.0428 38.6253 40.1262 39.1529 40.1262 40.0298V45.366H20.0071V40.1527C19.9704 39.6232 20.0843 39.094 20.3357 38.6264C20.587 38.1589 20.9655 37.7719 21.4275 37.5104C21.8996 37.1811 26.0298 34.6856 28.6919 33.0867C28.8759 32.9768 29.0281 32.8211 29.1339 32.6347C29.2396 32.4483 29.2951 32.2377 29.295 32.0234V28.8494C29.2952 28.6361 29.2401 28.4264 29.1351 28.2408C29.0301 28.0551 28.8788 27.8999 28.6959 27.7901L21.2966 23.2632H21.2728C20.8864 23.0803 20.5409 22.8212 20.2571 22.5015C20.0905 22.2357 20.0071 21.708 20.0071 20.8312V14.638H40.1262V20.7122C40.163 21.2422 40.0487 21.7718 39.7966 22.2395C39.5444 22.7072 39.1649 23.0939 38.7018 23.3545C38.2337 23.6838 34.1035 26.1793 31.4414 27.7782C31.2574 27.8881 31.1051 28.0438 30.9994 28.2302C30.8937 28.4166 30.8382 28.6272 30.8383 28.8415V32.0155C30.8392 32.228 30.8947 32.4368 30.9997 32.6216C31.1046 32.8064 31.2554 32.9611 31.4374 33.0708Z" fill="#FF5942"/>
<path d="M38.0677 23.0411C38.0677 23.0411 38.516 22.6443 37.8296 22.7634C36.2109 23.0252 33.5606 24.6162 30.1566 24.8741C26.7525 25.1319 25.1695 22.5848 23.0707 23.0887C22.6104 23.1958 22.6065 23.3942 23.15 23.7116C23.6936 24.029 28.5458 26.7308 29.2004 27.0998C29.855 27.4688 30.2518 27.445 30.958 27.0998C31.9856 26.5999 38.0677 23.0411 38.0677 23.0411Z" fill="#FCB3A5"/>
<path d="M23.1142 43.6164C22.5429 44.1441 22.2691 44.525 23.5823 44.525H36.7266C38.0874 44.525 37.5597 44.0608 36.921 43.4538C35.6871 42.2635 33.3502 40.5575 30.2199 40.5575C26.9587 40.5496 24.3838 42.446 23.1142 43.6164Z" fill="#FFE1DB"/>
<path d="M30.0641 29.3811C30.1522 29.4034 30.245 29.3977 30.3297 29.3647C30.4144 29.3317 30.4866 29.2731 30.5364 29.197C30.5861 29.121 30.6109 29.0313 30.6073 28.9405C30.6036 28.8497 30.5717 28.7623 30.5161 28.6905C30.4604 28.6187 30.3836 28.5661 30.2966 28.54C30.2096 28.5139 30.1165 28.5156 30.0305 28.5449C29.9445 28.5742 29.8698 28.6296 29.8168 28.7034C29.7638 28.7772 29.7351 28.8657 29.7348 28.9566C29.7264 29.0557 29.7557 29.1544 29.8167 29.2331C29.8777 29.3117 29.966 29.3645 30.0641 29.3811Z" fill="#FCB3A5"/>
<path d="M30.0641 31.099C30.1522 31.1213 30.245 31.1155 30.3297 31.0826C30.4144 31.0496 30.4866 30.9909 30.5364 30.9149C30.5861 30.8389 30.6109 30.7492 30.6073 30.6584C30.6036 30.5676 30.5717 30.4802 30.5161 30.4084C30.4604 30.3366 30.3836 30.284 30.2966 30.2579C30.2096 30.2318 30.1165 30.2335 30.0305 30.2628C29.9445 30.2921 29.8698 30.3475 29.8168 30.4213C29.7638 30.4951 29.7351 30.5836 29.7348 30.6745C29.7264 30.7736 29.7557 30.8723 29.8167 30.951C29.8777 31.0296 29.966 31.0824 30.0641 31.099Z" fill="#FCB3A5"/>
<path d="M30.0641 32.8169C30.1522 32.8392 30.245 32.8334 30.3297 32.8004C30.4144 32.7674 30.4866 32.7088 30.5364 32.6328C30.5861 32.5568 30.6109 32.4671 30.6073 32.3763C30.6036 32.2855 30.5717 32.1981 30.5161 32.1263C30.4604 32.0545 30.3836 32.0019 30.2966 31.9758C30.2096 31.9497 30.1165 31.9514 30.0305 31.9807C29.9445 32.01 29.8698 32.0654 29.8168 32.1392C29.7638 32.213 29.7351 32.3015 29.7348 32.3924C29.7264 32.4915 29.7557 32.5902 29.8167 32.6689C29.8777 32.7475 29.966 32.8003 30.0641 32.8169Z" fill="#FCB3A5"/>
<path d="M30.0641 34.5308C30.1522 34.5531 30.245 34.5473 30.3297 34.5143C30.4144 34.4813 30.4866 34.4227 30.5364 34.3467C30.5861 34.2706 30.6109 34.181 30.6073 34.0902C30.6036 33.9994 30.5717 33.912 30.5161 33.8402C30.4604 33.7684 30.3836 33.7158 30.2966 33.6897C30.2096 33.6636 30.1165 33.6653 30.0305 33.6946C29.9445 33.7239 29.8698 33.7793 29.8168 33.8531C29.7638 33.9269 29.7351 34.0154 29.7348 34.1062C29.7264 34.2054 29.7557 34.3041 29.8167 34.3827C29.8777 34.4614 29.966 34.5142 30.0641 34.5308Z" fill="#FCB3A5"/>
<path d="M30.0641 36.2488C30.1522 36.2711 30.245 36.2653 30.3297 36.2323C30.4144 36.1993 30.4866 36.1407 30.5364 36.0647C30.5861 35.9887 30.6109 35.899 30.6073 35.8082C30.6036 35.7174 30.5717 35.63 30.5161 35.5582C30.4604 35.4864 30.3836 35.4338 30.2966 35.4077C30.2096 35.3816 30.1165 35.3833 30.0305 35.4126C29.9445 35.4419 29.8698 35.4973 29.8168 35.5711C29.7638 35.6449 29.7351 35.7334 29.7348 35.8243C29.7264 35.9234 29.7557 36.0221 29.8167 36.1007C29.8777 36.1794 29.966 36.2322 30.0641 36.2488Z" fill="#FCB3A5"/>
<path d="M30.0641 37.9668C30.1522 37.9891 30.245 37.9833 30.3297 37.9503C30.4144 37.9174 30.4866 37.8587 30.5364 37.7827C30.5861 37.7067 30.6109 37.617 30.6073 37.5262C30.6036 37.4354 30.5717 37.348 30.5161 37.2762C30.4604 37.2044 30.3836 37.1518 30.2966 37.1257C30.2096 37.0996 30.1165 37.1013 30.0305 37.1306C29.9445 37.1599 29.8698 37.2153 29.8168 37.2891C29.7638 37.3629 29.7351 37.4514 29.7348 37.5423C29.7264 37.6414 29.7557 37.7401 29.8167 37.8188C29.8777 37.8974 29.966 37.9502 30.0641 37.9668Z" fill="#FCB3A5"/>
<path d="M30.0641 39.6807C30.1522 39.703 30.245 39.6972 30.3297 39.6642C30.4144 39.6312 30.4866 39.5726 30.5364 39.4966C30.5861 39.4205 30.6109 39.3309 30.6073 39.2401C30.6036 39.1493 30.5717 39.0619 30.5161 38.9901C30.4604 38.9183 30.3836 38.8657 30.2966 38.8396C30.2096 38.8135 30.1165 38.8152 30.0305 38.8445C29.9445 38.8738 29.8698 38.9292 29.8168 39.003C29.7638 39.0768 29.7351 39.1653 29.7348 39.2561C29.7264 39.3553 29.7557 39.454 29.8167 39.5326C29.8777 39.6113 29.966 39.6641 30.0641 39.6807Z" fill="#FCB3A5"/>
</svg>
