<svg width="120" height="94" viewBox="0 0 120 94" fill="none" xmlns="http://www.w3.org/2000/svg">
<path d="M59.9998 93.75C85.8881 93.75 106.875 72.7633 106.875 46.875C106.875 20.9867 85.8881 0 59.9998 0C34.1114 0 13.1248 20.9867 13.1248 46.875C13.1248 72.7633 34.1114 93.75 59.9998 93.75Z" fill="#FFE1DB"/>
<path d="M52.0496 66.6569L45.9184 80.4194C45.642 81.0473 45.1987 81.5873 44.6366 81.9807C44.0746 82.3742 43.4154 82.6059 42.7309 82.6506L30.6184 83.4006C25.1512 79.013 20.7405 73.4524 17.7124 67.1301C14.6843 60.8078 13.1164 53.8857 13.1246 46.8756C13.1044 41.7142 13.9537 36.5862 15.6371 31.7069C21.6371 30.2256 22.1809 29.8319 23.6621 30.4881L33.9184 34.8944C34.4568 35.1295 34.9325 35.4879 35.307 35.9406C35.6816 36.3933 35.9445 36.9277 36.0746 37.5006L38.8684 48.7506C39.0316 49.3334 39.3334 49.868 39.7481 50.3087C40.1627 50.7495 40.6779 51.0834 41.2496 51.2819L48.4121 53.6631C49.059 53.879 49.6348 54.2671 50.0775 54.7858C50.5202 55.3045 50.8131 55.9341 50.9246 56.6069C52.4996 65.0631 52.6496 65.2881 52.0496 66.6569Z" fill="#FCB3A5"/>
<path d="M98.5312 73.5562L90.2062 71.6812C89.5718 71.5426 88.9843 71.2417 88.5011 70.8078C88.018 70.374 87.6558 69.8221 87.45 69.2062L86.775 67.1813C86.6061 66.6808 86.3334 66.2216 85.9747 65.8339C85.616 65.4462 85.1795 65.1386 84.6937 64.9313L74.6812 60.6187C74.1954 60.4114 73.7589 60.1038 73.4002 59.7161C73.0416 59.3283 72.7689 58.8692 72.6 58.3687L66.0562 38.8125C65.7492 37.9773 65.7492 37.0602 66.0562 36.225L68.2687 30.7125C68.5695 29.9636 68.6207 29.1376 68.4147 28.3573C68.2086 27.577 67.7563 26.884 67.125 26.3812L61.4062 21.75C60.9577 21.3911 60.5976 20.9339 60.3538 20.4137C60.11 19.8936 59.9889 19.3244 60 18.75V0C98.2312 0 119.756 43.125 98.5312 73.5562Z" fill="#FCB3A5"/>
<path d="M51 56.6069L52.1625 63.6382C39.6861 63.4216 27.2519 62.123 15 59.7569C13.8389 55.8401 13.2082 51.7852 13.125 47.7007C23.1124 50.1875 33.3282 51.6451 43.6125 52.0507L48.4688 53.6632C49.1191 53.8762 49.6988 54.2631 50.145 54.782C50.5912 55.3009 50.8869 55.932 51 56.6069Z" fill="#FFAC9A"/>
<path d="M106.875 47.7007C106.776 51.7838 106.146 55.8367 105 59.7569C96.7931 61.431 88.479 62.5274 80.1187 63.0382L74.6062 60.6569C74.1204 60.4496 73.6839 60.142 73.3252 59.7543C72.9665 59.3665 72.6938 58.9074 72.525 58.4069L70.575 52.3132C82.8048 52.0747 94.9741 50.5284 106.875 47.7007Z" fill="#FFAC9A"/>
<path d="M106.031 38.0435C106.294 39.3747 106.5 40.7435 106.631 42.1122C112.969 43.781 116.25 45.581 116.25 46.8747C116.25 48.1685 112.969 49.9685 106.631 51.6372C83.175 57.806 36.7687 57.7872 13.3688 51.6372C7.03125 49.9685 3.75 48.1685 3.75 46.8747C3.75 45.581 7.03125 43.781 13.3688 42.1122C13.5 40.7435 13.7062 39.3747 13.9688 38.0435C5.71875 40.0497 0 42.8997 0 46.8747C0 50.8497 5.71875 53.6997 13.9688 55.706C44.8875 63.2247 120 60.9935 120 46.8747C120 42.8997 114.375 40.0497 106.031 38.0435Z" fill="#FF5942"/>
<path d="M79.0059 40.7519L79.0096 40.7534C79.5693 40.9891 79.9302 41.5351 79.9302 42.1375V52.1845C79.9302 58.9755 78.6699 64.2522 75.7859 68.7827C72.893 73.3274 68.3037 77.2206 61.4628 81.1248C61.2274 81.2581 60.9633 81.3256 60.6976 81.3256C60.4323 81.3256 60.1685 81.2583 59.9334 81.1252C53.0922 77.211 48.5025 73.3127 45.6094 68.7677C42.7253 64.2369 41.4651 58.9651 41.4651 52.1845V42.1375C41.4651 41.5342 41.827 40.9878 42.3825 40.7526L42.3843 40.7519L60.0852 33.2177C60.0856 33.2175 60.086 33.2173 60.0864 33.2172C60.4793 33.0516 60.9109 33.0516 61.3038 33.2172C61.3042 33.2173 61.3046 33.2175 61.3051 33.2177L79.0059 40.7519Z" fill="#FF5942" stroke="white" stroke-width="2"/>
<path d="M58.0819 64.1863C58.0453 64.1863 58.0034 64.1863 57.972 64.1863C57.1399 64.1528 56.3706 63.7603 55.9049 63.1236L50.6716 55.943C49.8709 54.8419 50.1953 53.358 51.399 52.6255C52.5922 51.8979 54.2197 52.1851 55.0257 53.2909L58.2755 57.7477L66.5023 48.3363C67.4076 47.3071 69.0561 47.1443 70.1813 47.9629C71.3117 48.7911 71.4896 50.2942 70.5895 51.3282L60.1229 63.2959C59.6257 63.856 58.8721 64.1863 58.0819 64.1863Z" fill="#FAFAFA"/>
</svg>
