<svg width="120" height="67" viewBox="0 0 120 67" fill="none" xmlns="http://www.w3.org/2000/svg">
<path d="M90.5172 0H6.03448C2.70948 0 0 2.70948 0 6.03448V60.3448C0 63.6759 2.70948 66.3793 6.03448 66.3793H90.5172C93.8483 66.3793 96.5517 63.6759 96.5517 60.3448V6.03448C96.5517 2.70948 93.8483 0 90.5172 0Z" fill="#FFE2DC"/>
<path d="M96.5517 11.3779H0V29.4814H96.5517V11.3779Z" fill="#FFAC9A"/>
<path d="M27.1551 48.2759H15.0861C13.4206 48.2759 12.0688 46.9242 12.0688 45.2587C12.0688 43.5932 13.4206 42.2415 15.0861 42.2415H27.1551C28.8206 42.2415 30.1723 43.5932 30.1723 45.2587C30.1723 46.9242 28.8206 48.2759 27.1551 48.2759Z" fill="#FFAC9A"/>
<path d="M116.231 30.4382L116.23 30.4372L116.2 30.4061C115.808 29.9964 115.382 29.5509 115.014 29.1098C114.644 28.6663 114.276 28.162 114.059 27.6347C113.851 27.1341 113.764 26.5392 113.719 25.9926C113.673 25.4393 113.664 24.8387 113.656 24.2877L113.655 24.2634C113.655 24.2634 113.655 24.2633 113.655 24.2633C113.622 22.0695 113.547 20.1337 112.224 18.8107C110.901 17.4878 108.965 17.4131 106.771 17.3794C106.771 17.3794 106.771 17.3794 106.771 17.3794L106.747 17.379C106.196 17.3706 105.595 17.3615 105.042 17.3158C104.495 17.2706 103.9 17.1837 103.399 16.9757C103.399 16.9756 103.399 16.9754 103.398 16.9752L103.782 16.0519C103.017 15.736 102.143 14.8994 101.296 14.0891L116.231 30.4382ZM116.231 30.4382C117.725 31.9958 119 33.3936 119 35.1726C119 36.9516 117.725 38.3521 116.231 39.9065L116.23 39.908L116.211 39.9279C115.816 40.3412 115.385 40.791 115.014 41.2364C114.644 41.6798 114.277 42.1835 114.059 42.7088M116.231 30.4382L113.655 46.0819M88.3258 53.37C87.8249 53.1616 87.2293 53.0747 86.682 53.0294C86.1288 52.9837 85.5281 52.9746 84.9771 52.9662L84.9528 52.9658C84.9528 52.9658 84.9528 52.9658 84.9527 52.9658C82.7589 52.9321 80.8232 52.8574 79.5002 51.5345C78.1772 50.2115 78.1026 48.2757 78.0688 46.0819C78.0688 46.0819 78.0688 46.0818 78.0688 46.0818L78.0685 46.0575C78.0601 45.5065 78.0509 44.9059 78.0052 44.3526C77.96 43.806 77.8732 43.2111 77.6654 42.7105C77.4479 42.1832 77.0802 41.6789 76.7102 41.2354C76.3421 40.7942 75.9158 40.3487 75.5237 39.939L75.4941 39.908L75.4931 39.907C73.9987 38.3494 72.7241 36.9516 72.7241 35.1726C72.7241 33.3936 73.999 31.9931 75.4926 30.4387L75.4941 30.4372L75.5132 30.4173C75.9086 30.004 76.339 29.5542 76.7104 29.1088C77.0803 28.6651 77.4478 28.1611 77.6651 27.6354C77.8731 27.1346 77.96 26.5395 78.0052 25.9926C78.0509 25.4393 78.0601 24.8387 78.0685 24.2877L78.0687 24.2685C78.0688 24.2676 78.0688 24.2667 78.0688 24.2659C78.1139 22.0633 78.1778 20.1331 79.5002 18.8107C80.8232 17.4878 82.7589 17.4131 84.9527 17.3794C84.9528 17.3794 84.9528 17.3794 84.9529 17.3794L84.9778 17.379C85.5286 17.3706 86.13 17.3615 86.6836 17.3158C87.2296 17.2707 87.8256 17.184 88.3252 16.9755L103.4 53.3693C102.873 53.5867 102.368 53.9544 101.925 54.3245C101.484 54.6925 101.038 55.1188 100.629 55.5109L100.597 55.5406L100.596 55.5415C99.0389 57.036 97.641 58.3105 95.8621 58.3105C94.0831 58.3105 92.6826 57.0356 91.1282 55.542L91.1267 55.5406L91.1067 55.5215C90.6935 55.1261 90.2436 54.6956 89.7982 54.3243C89.3549 53.9546 88.8511 53.5874 88.3258 53.37ZM88.3258 53.37L87.9419 54.293L88.3235 53.369C88.3242 53.3693 88.325 53.3696 88.3258 53.37ZM113.655 46.0819L114.655 46.0972L113.655 46.0818M113.655 46.0819C113.655 46.0819 113.655 46.0818 113.655 46.0818M113.655 46.0819L113.655 46.0818M113.655 46.0818L113.656 46.0575C113.664 45.5065 113.673 44.9059 113.719 44.3526C113.764 43.8054 113.851 43.2098 114.059 42.7088M114.059 42.7088L114.982 43.0927L114.058 42.7112C114.059 42.7104 114.059 42.7096 114.059 42.7088ZM89.1683 34.9698L89.1685 34.97L92.4139 38.2172L102.556 28.0733L102.556 28.0732C102.809 27.8202 103.109 27.6195 103.44 27.4825C103.771 27.3456 104.125 27.2751 104.483 27.2751C104.841 27.2751 105.195 27.3456 105.526 27.4825C105.856 27.6195 106.157 27.8202 106.41 28.0732C106.663 28.3263 106.863 28.6267 107 28.9573C107.137 29.288 107.208 29.6423 107.208 30.0002C107.208 30.3581 107.137 30.7124 107 31.043C106.863 31.3737 106.663 31.6741 106.41 31.9271L94.3411 43.9957C94.341 43.9958 94.3408 43.996 94.3407 43.9961C94.0878 44.2492 93.7875 44.45 93.457 44.587C93.1262 44.7241 92.7718 44.7946 92.4138 44.7946C92.0558 44.7946 91.7013 44.7241 91.3706 44.587M89.1683 34.9698L91.3706 44.587M89.1683 34.9698C88.6572 34.4587 87.9641 34.1716 87.2414 34.1716C86.5186 34.1716 85.8255 34.4587 85.3144 34.9698C84.8034 35.4809 84.5163 36.174 84.5163 36.8967C84.5163 37.6195 84.8034 38.3126 85.3144 38.8237L90.4865 43.9957C90.4866 43.9958 90.4867 43.996 90.4868 43.9961M89.1683 34.9698L90.4868 43.9961M91.3706 44.587C91.0401 44.45 90.7398 44.2492 90.4868 43.9961M91.3706 44.587L90.4868 43.9961M106.771 52.9658L106.787 53.9657L106.771 52.9658C106.771 52.9658 106.771 52.9658 106.771 52.9658Z" fill="#FF5942" stroke="white" stroke-width="2"/>
<path d="M77.2415 35.8623L90.3449 22.7589L97.9311 16.552L113.793 32.4141L93.7932 52.4141L77.2415 35.8623Z" fill="#FF5942"/>
<path d="M93.1891 45.9352C93.1469 45.9352 93.0986 45.9352 93.0624 45.9352C92.1029 45.893 91.2158 45.3982 90.6788 44.5956L84.6443 35.5438C83.721 34.1559 84.0952 32.2852 85.4831 31.3619C86.859 30.4447 88.7357 30.8068 89.665 32.2007L93.4124 37.8188L102.899 25.955C103.943 24.6576 105.843 24.4525 107.141 25.4844C108.444 26.5283 108.649 28.4231 107.612 29.7266L95.5426 44.8128C94.9693 45.5188 94.1003 45.9352 93.1891 45.9352Z" fill="#FAFAFA"/>
</svg>
