<svg width="84" height="84" viewBox="0 0 84 84" fill="none" xmlns="http://www.w3.org/2000/svg">
<circle cx="42" cy="42" r="42" fill="#EDEDED"/>
<path d="M2 42H82.0002C82.0002 31.3913 77.7859 21.2172 70.2844 13.7157C62.7829 6.21424 52.6088 2 42.0001 2C31.3914 2 21.2173 6.21424 13.7158 13.7157C6.21435 21.2172 2 31.3913 2 42Z" fill="#ED2939"/>
<path d="M82.0002 41.9999H2C2 52.6086 6.21435 62.7828 13.7158 70.2843C21.2173 77.7857 31.3914 82 42.0001 82C52.6088 82 62.7829 77.7857 70.2844 70.2843C77.7859 62.7828 82.0002 52.6086 82.0002 41.9999Z" fill="white"/>
<path d="M31.7688 18.5948L32.3567 20.4272H34.2927L32.7369 21.5681L33.3246 23.4004L31.7688 22.2595L30.2132 23.4004L30.8009 21.5681L29.2451 20.4272H31.1465L31.7688 18.5948Z" fill="white"/>
<path d="M25.477 23.1237L26.0647 24.956H28.0007L26.445 26.0969L27.0326 27.9292L25.477 26.7883L23.9212 27.9292L24.5089 26.0969L22.9531 24.956H24.8892L25.477 23.1237Z" fill="white"/>
<path d="M27.8596 30.5568L28.4475 32.3891H30.3836L28.8278 33.53L29.4154 35.3624L27.8596 34.2214L26.2695 35.3624L26.8917 33.53L25.3359 32.3891H27.2374L27.8596 30.5568Z" fill="white"/>
<path d="M35.6721 30.5568L36.26 32.3891H38.1961L36.6403 33.53L37.2279 35.3624L35.6721 34.2214L34.1166 35.3624L34.7042 33.53L33.1484 32.3891H35.0845L35.6721 30.5568Z" fill="white"/>
<path d="M38.0218 23.1237L38.6442 24.956H40.5803L39.0245 26.0969L39.6122 27.9292L38.0218 26.7883L36.4662 27.9292L37.0884 26.0969L35.498 24.956H37.4341L38.0218 23.1237Z" fill="white"/>
<path d="M31.7688 18.5948L32.3567 20.4272H34.2927L32.7369 21.5681L33.3246 23.4004L31.7688 22.2595L30.2132 23.4004L30.8009 21.5681L29.2451 20.4272H31.1465L31.7688 18.5948Z" fill="white"/>
<path d="M22.8477 36.0881C21.0993 34.5534 19.8618 32.5209 19.3012 30.263C18.7406 28.0051 18.8836 25.6298 19.7112 23.4555C20.5388 21.2813 22.0114 19.412 23.9314 18.0983C25.8514 16.7845 28.127 16.0891 30.4534 16.1053C28.5831 15.3902 26.5664 15.1435 24.5788 15.3869C22.5913 15.6302 20.6933 16.356 19.0507 17.5012C17.4081 18.6464 16.0708 20.1761 15.1552 21.9569C14.2396 23.7377 13.7735 25.7155 13.7978 27.7178C13.822 29.72 14.3358 31.6859 15.2943 33.444C16.2528 35.2021 17.6269 36.6989 19.2968 37.8039C20.9666 38.909 22.8816 39.5887 24.8744 39.7838C26.8673 39.9788 28.8776 39.6833 30.73 38.923C27.837 39.0188 25.017 38.0045 22.8477 36.0881Z" fill="white"/>
</svg>
