<svg width="114" height="68" viewBox="0 0 114 68" fill="none" xmlns="http://www.w3.org/2000/svg">
<path d="M98.062 39.7868H107.349C109.113 39.7868 110.805 39.0892 112.052 37.8474C113.299 36.6056 114 34.9213 114 33.1651V33.1133C113.999 31.3609 113.301 29.6802 112.058 28.4394C110.815 27.1986 109.129 26.4989 107.369 26.4936H78.4297L84.6374 39.7888L98.062 39.7868Z" fill="#FF5942"/>
<path d="M6.6302 26.4916C4.87011 26.4963 3.18373 27.1959 1.94084 28.4368C0.697955 29.6777 -6.46717e-06 31.3587 0 33.1113L0 33.1631C0 34.9193 0.700647 36.6036 1.94781 37.8454C3.19497 39.0872 4.88648 39.7848 6.65023 39.7848H13.1823L6.97463 26.4916H6.6302Z" fill="#FF5942"/>
<path d="M109.837 14.6419C110.406 13.4482 110.732 12.1542 110.796 10.8345C110.861 9.51472 110.663 8.19528 110.213 6.95216C109.763 5.70904 109.071 4.5668 108.176 3.59121C107.281 2.61562 106.201 1.82597 104.998 1.26774C103.795 0.709507 102.494 0.393719 101.168 0.338565C99.8419 0.283411 98.5182 0.48998 97.2729 0.946375C96.0275 1.40277 94.8852 2.09997 93.9116 2.99783C92.938 3.89569 92.1525 4.97646 91.6002 6.17789L83.3359 23.8238H105.539L109.837 14.6419Z" fill="#FF5942"/>
<path d="M42.3682 42.4127H39.4626L38.9199 41.2523H38.8979L38.2171 39.7868L35.1352 33.1412L32.0094 26.4437L30.7839 23.8198L22.0671 5.14702C20.8307 2.93376 18.7982 1.26907 16.3786 0.488094C13.9591 -0.292885 11.3322 -0.132155 9.02694 0.937923C6.71226 2.01245 4.89475 3.92345 3.94312 6.28325C2.99149 8.64304 2.977 11.2749 3.9026 13.645L6.18943 18.5738L7.52709 21.4411L8.64046 23.8198L9.20716 25.0161L9.86998 26.4337L9.89201 26.4816L16.0997 39.7748H16.1297L16.8146 41.2403L17.3592 42.4008L25.6075 60.0148C25.6996 60.2839 25.8077 60.5511 25.9198 60.8123L26.1201 61.241C26.9586 62.934 28.2607 64.3565 29.8762 65.3444C31.4916 66.3323 33.3546 66.8455 35.2503 66.8246C37.146 66.8038 38.9972 66.2498 40.5904 65.2266C42.1835 64.2034 43.4537 62.7526 44.2545 61.0416L46.1829 56.9243L46.2169 56.8525L47.6587 53.754L52.9693 42.4127H42.3682Z" fill="#FF5942"/>
<path d="M34.9375 26.4916L41.1432 39.7868H54.2033H56.6323L50.3846 26.4517L34.9375 26.4916Z" fill="#FF5942"/>
<path d="M85.8614 42.4127H82.9558L82.4131 41.2523H82.3991L81.7182 39.7868L79.94 35.9525L75.4945 26.4437L74.269 23.8198L65.7725 5.61557C64.8773 3.93762 63.5214 2.54771 61.8629 1.60799C60.2044 0.668267 58.3117 0.217469 56.4057 0.308181C54.4997 0.398893 52.6588 1.02738 51.0979 2.12032C49.537 3.21326 48.3204 4.7256 47.59 6.48092L45.8579 10.2175V10.2374L45.0569 11.9561L44.4061 13.3519L39.5 23.8257H52.2017L53.4272 26.4497L60.8804 42.4187L69.7875 61.5042C70.5744 63.1346 71.7903 64.5222 73.3059 65.5196C74.8215 66.5171 76.5802 67.0869 78.395 67.1687C80.2099 67.2505 82.0131 66.8412 83.613 65.9842C85.2129 65.1273 86.5497 63.8547 87.4814 62.3018L87.5034 62.2659C87.5795 62.1382 87.6516 62.0086 87.7217 61.879C87.7337 61.8591 87.7437 61.8392 87.7537 61.8192C87.8238 61.6856 87.8919 61.552 87.9539 61.4204L87.976 61.3786V61.3566L89.8643 57.325L89.8943 57.2592L90.6773 55.5863L91.3501 54.1507L96.8449 42.4167L85.8614 42.4127Z" fill="#FF5942"/>
</svg>
