<svg width="24" height="24" viewBox="0 0 24 24" fill="none" xmlns="http://www.w3.org/2000/svg">
<path d="M18.3438 8.25C18.3646 8.33333 18.375 8.46875 18.375 8.65625C18.375 9.76042 18.1667 10.8646 17.75 11.9688C17.3333 13.0521 16.7396 14.0521 15.9688 14.9688C15.2188 15.8646 14.2396 16.5938 13.0312 17.1562C11.8229 17.7188 10.4896 18 9.03125 18C7.19792 18 5.52083 17.5104 4 16.5312C4.22917 16.5521 4.48958 16.5625 4.78125 16.5625C6.30208 16.5625 7.66667 16.0938 8.875 15.1562C8.14583 15.1562 7.5 14.9479 6.9375 14.5312C6.39583 14.0938 6.02083 13.5521 5.8125 12.9062C6.02083 12.9271 6.21875 12.9375 6.40625 12.9375C6.69792 12.9375 6.98958 12.9062 7.28125 12.8438C6.78125 12.7396 6.33333 12.5312 5.9375 12.2188C5.54167 11.9062 5.22917 11.5312 5 11.0938C4.77083 10.6354 4.65625 10.1458 4.65625 9.625V9.5625C5.11458 9.83333 5.60417 9.97917 6.125 10C5.14583 9.33333 4.65625 8.41667 4.65625 7.25C4.65625 6.66667 4.8125 6.11458 5.125 5.59375C5.9375 6.61458 6.92708 7.42708 8.09375 8.03125C9.28125 8.63542 10.5417 8.96875 11.875 9.03125C11.8333 8.78125 11.8125 8.53125 11.8125 8.28125C11.8125 7.38542 12.125 6.61458 12.75 5.96875C13.3958 5.32292 14.1667 5 15.0625 5C16.0208 5 16.8229 5.34375 17.4688 6.03125C18.2188 5.88542 18.9167 5.625 19.5625 5.25C19.3125 6.02083 18.8333 6.625 18.125 7.0625C18.75 6.97917 19.375 6.80208 20 6.53125C19.5417 7.19792 18.9896 7.77083 18.3438 8.25Z" fill="#111111"/>
</svg>
