<svg width="42" height="42" viewBox="0 0 42 42" fill="none" xmlns="http://www.w3.org/2000/svg">
<path d="M36.3846 6H5.61538C4.39131 6 3.21737 6.48626 2.35181 7.35181C1.48626 8.21737 1 9.39131 1 10.6154V32.1538C1 33.3779 1.48626 34.5519 2.35181 35.4174C3.21737 36.283 4.39131 36.7692 5.61538 36.7692H36.3846C37.6087 36.7692 38.7826 36.283 39.6482 35.4174C40.5137 34.5519 41 33.3779 41 32.1538V10.6154C41 9.39131 40.5137 8.21737 39.6482 7.35181C38.7826 6.48626 37.6087 6 36.3846 6ZM25.5231 20.7712C25.3076 21.8104 24.7405 22.7436 23.9173 23.4136C23.0941 24.0835 22.0652 24.4493 21.0038 24.4493C19.9425 24.4493 18.9136 24.0835 18.0904 23.4136C17.2672 22.7436 16.7001 21.8104 16.4846 20.7712C16.3429 20.0748 15.9646 19.449 15.4139 19C14.8632 18.5509 14.174 18.3063 13.4635 18.3077H4.07692V15.2308H37.9231V18.3077H28.5365C27.8273 18.3081 27.1399 18.5535 26.5908 19.0024C26.0417 19.4513 25.6645 20.0761 25.5231 20.7712ZM5.61538 9.07692H36.3846C36.7926 9.07692 37.184 9.23901 37.4725 9.52753C37.761 9.81605 37.9231 10.2074 37.9231 10.6154V12.1538H4.07692V10.6154C4.07692 10.2074 4.23901 9.81605 4.52753 9.52753C4.81605 9.23901 5.20736 9.07692 5.61538 9.07692Z" fill="url(#paint0_linear_1600_985)"/>
<defs>
<linearGradient id="paint0_linear_1600_985" x1="8.77778" y1="12.8376" x2="26.6069" y2="36.372" gradientUnits="userSpaceOnUse">
<stop stop-color="#FF843D"/>
<stop offset="1" stop-color="#FF5942"/>
</linearGradient>
</defs>
</svg>
